tests/design.vcd
$date
	Wed Apr 13 15:28:12 2022
$end
$version
	Icarus Verilog
$end
$timescale
	1ps
$end
$scope module tb_axi_responder $end
$var wire 64 ! AXIML_ARADDR [63:0] $end
$var wire 1 " AXIML_ARVALID $end
$var wire 64 # AXIML_AWADDR [63:0] $end
$var wire 1 $ AXIML_AWVALID $end
$var wire 1 % AXIML_BREADY $end
$var wire 1 & AXIML_RREADY $end
$var wire 2 ' AXIML_RRESP [1:0] $end
$var wire 64 ( AXIML_WDATA [63:0] $end
$var wire 8 ) AXIML_WSTRB [7:0] $end
$var wire 1 * AXIML_WVALID $end
$var wire 1 + clk $end
$var wire 1 , mem_bridge_rdy $end
$var wire 1 - rst $end
$var wire 1 . mem_bridge_val $end
$var wire 64 / mem_bridge_dat [63:0] $end
$var wire 1 0 bridge_mem_val $end
$var wire 1 1 bridge_mem_rdy $end
$var wire 64 2 bridge_mem_dat [63:0] $end
$var wire 1 3 AXIML_WREADY $end
$var wire 1 4 AXIML_RVALID $end
$var wire 64 5 AXIML_RDATA [63:0] $end
$var wire 1 6 AXIML_BVALID $end
$var wire 2 7 AXIML_BRESP [1:0] $end
$var wire 1 8 AXIML_AWREADY $end
$var wire 1 9 AXIML_ARREADY $end
$var reg 1 : r_rst $end
$var reg 8 ; test_id [7:0] $end
$scope module dut $end
$var wire 1 < araddr_fifo_ren $end
$var wire 64 = araddr_fifo_wdata [63:0] $end
$var wire 1 > araddr_fifo_wval $end
$var wire 1 ? awaddr_fifo_ren $end
$var wire 64 @ awaddr_fifo_wdata [63:0] $end
$var wire 1 A awaddr_fifo_wval $end
$var wire 1 B axi2noc_msg_type_load $end
$var wire 1 C axi2noc_msg_type_store $end
$var wire 1 + clk $end
$var wire 14 D dest_chipid [13:0] $end
$var wire 4 E dest_fbits [3:0] $end
$var wire 8 F dest_xpos [7:0] $end
$var wire 8 G dest_ypos [7:0] $end
$var wire 64 H m_axi_araddr [63:0] $end
$var wire 1 9 m_axi_arready $end
$var wire 1 " m_axi_arvalid $end
$var wire 64 I m_axi_awaddr [63:0] $end
$var wire 1 8 m_axi_awready $end
$var wire 1 $ m_axi_awvalid $end
$var wire 1 % m_axi_bready $end
$var wire 1 & m_axi_rready $end
$var wire 2 J m_axi_rresp [1:0] $end
$var wire 64 K m_axi_wdata [63:0] $end
$var wire 1 3 m_axi_wready $end
$var wire 8 L m_axi_wstrb [7:0] $end
$var wire 1 * m_axi_wvalid $end
$var wire 64 M noc2_data_in [63:0] $end
$var wire 64 N noc2_data_out [63:0] $end
$var wire 1 O noc2_ready_out $end
$var wire 1 P noc2_valid_in $end
$var wire 1 0 noc2_valid_out $end
$var wire 64 Q noc3_data_out [63:0] $end
$var wire 1 R noc3_ready_in $end
$var wire 1 , noc3_ready_out $end
$var wire 1 S noc3_valid_out $end
$var wire 1 T noc_load_done $end
$var wire 1 U noc_store_done $end
$var wire 1 : rst $end
$var wire 14 V src_chipid [13:0] $end
$var wire 4 W src_fbits [3:0] $end
$var wire 8 X src_xpos [7:0] $end
$var wire 8 Y src_ypos [7:0] $end
$var wire 1 Z type_fifo_ren $end
$var wire 1 [ type_fifo_wval $end
$var wire 1 \ wdata_fifo_ren $end
$var wire 64 ] wdata_fifo_wdata [63:0] $end
$var wire 1 ^ wdata_fifo_wval $end
$var wire 1 _ write_channel_ready $end
$var wire 1 ` wstrb_fifo_ren $end
$var wire 8 a wstrb_fifo_wdata [7:0] $end
$var wire 1 b wstrb_fifo_wval $end
$var wire 1 c wstrb_fifoside_valid $end
$var wire 1 d wstrb_outputside_valid $end
$var wire 1 e wstrb_outputside_ready $end
$var wire 1 f wstrb_fifoside_ready $end
$var wire 8 g wstrb_fifo_out [7:0] $end
$var wire 1 h wstrb_fifo_full $end
$var wire 1 i wstrb_fifo_empty $end
$var wire 64 j wdata_fifo_out [63:0] $end
$var wire 1 k wdata_fifo_full $end
$var wire 1 l wdata_fifo_empty $end
$var wire 2 m type_fifo_wdata [1:0] $end
$var wire 2 n type_fifo_out [1:0] $end
$var wire 1 o type_fifo_full $end
$var wire 1 p type_fifo_empty $end
$var wire 8 q pmesh_mask [7:0] $end
$var wire 1 . noc3_valid_in $end
$var wire 64 r noc3_data_in [63:0] $end
$var wire 1 1 noc2_ready_in $end
$var wire 1 4 m_axi_rvalid $end
$var wire 64 s m_axi_rdata [63:0] $end
$var wire 1 6 m_axi_bvalid $end
$var wire 2 t m_axi_bresp [1:0] $end
$var wire 1 u fifo_has_packet $end
$var wire 2 v axi2noc_msg_type [1:0] $end
$var wire 64 w awaddr_fifo_out [63:0] $end
$var wire 1 x awaddr_fifo_full $end
$var wire 1 y awaddr_fifo_empty $end
$var wire 64 z araddr_fifo_out [63:0] $end
$var wire 1 { araddr_fifo_full $end
$var wire 1 | araddr_fifo_empty $end
$var reg 64 } flit [63:0] $end
$var reg 1 ~ flit_ready $end
$var reg 3 !" flit_state [2:0] $end
$var reg 64 "" msg_address [63:0] $end
$var reg 3 #" msg_data_size [2:0] $end
$var reg 8 $" msg_length [7:0] $end
$var reg 8 %" msg_mshrid [7:0] $end
$var reg 6 &" msg_options_1 [5:0] $end
$var reg 16 '" msg_options_2 [15:0] $end
$var reg 30 (" msg_options_3 [29:0] $end
$var reg 8 )" msg_type [7:0] $end
$var reg 3 *" noc_cnt [2:0] $end
$var reg 1 +" noc_last_data $end
$var reg 1 ," noc_last_header $end
$var integer 32 -" file [31:0] $end
$var integer 32 ." file2 [31:0] $end
$var integer 32 /" file3 [31:0] $end
$var integer 32 0" file4 [31:0] $end
$scope begin genblk3 $end
$scope begin DATA_GEN[0] $end
$upscope $end
$upscope $end
$scope module awaddr_fifo $end
$var wire 1 + clk $end
$var wire 1 ? ren $end
$var wire 1 : reset $end
$var wire 64 1" wdata [63:0] $end
$var wire 1 A wval $end
$var reg 1 y empty $end
$var reg 1 x full $end
$var reg 64 2" rdata [63:0] $end
$var reg 6 3" sync_buf_counter_f [5:0] $end
$var reg 6 4" sync_buf_counter_next [5:0] $end
$var reg 4 5" sync_rd_ptr_f [3:0] $end
$var reg 4 6" sync_rd_ptr_next [3:0] $end
$var reg 4 7" sync_wr_ptr_f [3:0] $end
$var reg 4 8" sync_wr_ptr_next [3:0] $end
$upscope $end
$scope module noc_response_axilite $end
$var wire 1 + clk $end
$var wire 1 % m_axi_bready $end
$var wire 64 9" m_axi_rdata [63:0] $end
$var wire 1 & m_axi_rready $end
$var wire 2 :" m_axi_rresp [1:0] $end
$var wire 1 4 m_axi_rvalid $end
$var wire 1 ;" noc_io_go $end
$var wire 1 <" noc_ready_in $end
$var wire 1 , noc_ready_out $end
$var wire 1 =" ren $end
$var wire 1 : rst $end
$var wire 64 >" rdata [63:0] $end
$var wire 1 . noc_valid_in $end
$var wire 64 ?" noc_data_in [63:0] $end
$var wire 1 @" full $end
$var wire 1 A" empty $end
$var reg 2 B" m_axi_bresp [1:0] $end
$var reg 1 6 m_axi_bvalid $end
$var reg 8 C" msg_counter_f [7:0] $end
$var reg 8 D" msg_counter_next [7:0] $end
$var reg 1 E" msg_data_done $end
$var reg 8 F" msg_payload_len [7:0] $end
$var reg 3 G" msg_state_f [2:0] $end
$var reg 3 H" msg_state_next [2:0] $end
$var reg 64 I" noc_data_out [63:0] $end
$var reg 1 J" noc_valid_out $end
$var reg 6 K" r_reqbuf_size [5:0] $end
$var reg 6 L" w_reqbuf_size [5:0] $end
$var reg 64 M" wdata [63:0] $end
$var reg 1 N" wval $end
$scope begin genblk1 $end
$upscope $end
$scope module raddr_fifo $end
$var wire 1 + clk $end
$var wire 1 =" ren $end
$var wire 1 : reset $end
$var wire 64 O" wdata [63:0] $end
$var wire 1 N" wval $end
$var reg 1 A" empty $end
$var reg 1 @" full $end
$var reg 64 P" rdata [63:0] $end
$var reg 6 Q" sync_buf_counter_f [5:0] $end
$var reg 6 R" sync_buf_counter_next [5:0] $end
$var reg 4 S" sync_rd_ptr_f [3:0] $end
$var reg 4 T" sync_rd_ptr_next [3:0] $end
$var reg 4 U" sync_wr_ptr_f [3:0] $end
$var reg 4 V" sync_wr_ptr_next [3:0] $end
$upscope $end
$upscope $end
$scope module raddr_fifo $end
$var wire 1 + clk $end
$var wire 1 < ren $end
$var wire 1 : reset $end
$var wire 64 W" wdata [63:0] $end
$var wire 1 > wval $end
$var reg 1 | empty $end
$var reg 1 { full $end
$var reg 64 X" rdata [63:0] $end
$var reg 6 Y" sync_buf_counter_f [5:0] $end
$var reg 6 Z" sync_buf_counter_next [5:0] $end
$var reg 4 [" sync_rd_ptr_f [3:0] $end
$var reg 4 \" sync_rd_ptr_next [3:0] $end
$var reg 4 ]" sync_wr_ptr_f [3:0] $end
$var reg 4 ^" sync_wr_ptr_next [3:0] $end
$upscope $end
$scope module strb2mask_ins $end
$var wire 1 + clk $end
$var wire 1 e i_ready $end
$var wire 1 c i_valid $end
$var wire 1 f o_ready $end
$var wire 1 d o_valid $end
$var wire 1 : rst $end
$var wire 8 _" m_axi_wstrb [7:0] $end
$var reg 15 `" all_match [14:0] $end
$var reg 8 a" output_mask [7:0] $end
$var reg 1 b" ovalid_state $end
$var reg 1 c" ovalid_state_next $end
$var reg 15 d" part_match [14:0] $end
$var reg 8 e" pmesh_mask [7:0] $end
$var reg 8 f" reverse_source [7:0] $end
$var reg 8 g" source_d [7:0] $end
$var reg 8 h" source_q [7:0] $end
$var reg 1 i" valid_delay_stage1 $end
$var integer 32 j" i [31:0] $end
$var integer 32 k" j [31:0] $end
$var integer 32 l" k [31:0] $end
$upscope $end
$scope module type_fifo $end
$var wire 1 + clk $end
$var wire 1 Z ren $end
$var wire 1 : reset $end
$var wire 2 m" wdata [1:0] $end
$var wire 1 [ wval $end
$var reg 1 p empty $end
$var reg 1 o full $end
$var reg 2 n" rdata [1:0] $end
$var reg 6 o" sync_buf_counter_f [5:0] $end
$var reg 6 p" sync_buf_counter_next [5:0] $end
$var reg 4 q" sync_rd_ptr_f [3:0] $end
$var reg 4 r" sync_rd_ptr_next [3:0] $end
$var reg 4 s" sync_wr_ptr_f [3:0] $end
$var reg 4 t" sync_wr_ptr_next [3:0] $end
$upscope $end
$scope module waddr_fifo $end
$var wire 1 + clk $end
$var wire 1 \ ren $end
$var wire 1 : reset $end
$var wire 64 u" wdata [63:0] $end
$var wire 1 ^ wval $end
$var reg 1 l empty $end
$var reg 1 k full $end
$var reg 64 v" rdata [63:0] $end
$var reg 6 w" sync_buf_counter_f [5:0] $end
$var reg 6 x" sync_buf_counter_next [5:0] $end
$var reg 4 y" sync_rd_ptr_f [3:0] $end
$var reg 4 z" sync_rd_ptr_next [3:0] $end
$var reg 4 {" sync_wr_ptr_f [3:0] $end
$var reg 4 |" sync_wr_ptr_next [3:0] $end
$upscope $end
$scope module wstrb_fifo $end
$var wire 1 + clk $end
$var wire 1 ` ren $end
$var wire 1 : reset $end
$var wire 8 }" wdata [7:0] $end
$var wire 1 b wval $end
$var reg 1 i empty $end
$var reg 1 h full $end
$var reg 8 ~" rdata [7:0] $end
$var reg 6 !# sync_buf_counter_f [5:0] $end
$var reg 6 "# sync_buf_counter_next [5:0] $end
$var reg 4 ## sync_rd_ptr_f [3:0] $end
$var reg 4 $# sync_rd_ptr_next [3:0] $end
$var reg 4 %# sync_wr_ptr_f [3:0] $end
$var reg 4 &# sync_wr_ptr_next [3:0] $end
$upscope $end
$upscope $end
$scope module fake_mem_ctrl $end
$var wire 1 + clk $end
$var wire 64 '# noc_data_in [63:0] $end
$var wire 1 , noc_ready_out $end
$var wire 1 0 noc_valid_in $end
$var wire 1 (# rst_n $end
$var wire 8 )# msg_type [7:0] $end
$var wire 8 *# msg_src_y [7:0] $end
$var wire 8 +# msg_src_x [7:0] $end
$var wire 4 ,# msg_src_fbits [3:0] $end
$var wire 14 -# msg_src_chipid [13:0] $end
$var wire 192 .# msg_send_header [191:0] $end
$var wire 8 /# msg_mshrid [7:0] $end
$var wire 3 0# msg_data_size [2:0] $end
$var wire 40 1# msg_addr [39:0] $end
$var reg 8 2# buf_in_counter_f [7:0] $end
$var reg 8 3# buf_in_counter_next [7:0] $end
$var reg 64 4# buf_in_mem_next [63:0] $end
$var reg 4 5# buf_in_wr_ptr_f [3:0] $end
$var reg 4 6# buf_in_wr_ptr_next [3:0] $end
$var reg 8 7# buf_out_counter_f [7:0] $end
$var reg 8 8# buf_out_counter_next [7:0] $end
$var reg 4 9# buf_out_rd_ptr_f [3:0] $end
$var reg 4 :# buf_out_rd_ptr_next [3:0] $end
$var reg 192 ;# mem_header_in [191:0] $end
$var reg 1 <# mem_ready_in $end
$var reg 64 =# mem_temp [63:0] $end
$var reg 1 ># mem_valid_in $end
$var reg 8 ?# msg_send_length [7:0] $end
$var reg 8 @# msg_send_type [7:0] $end
$var reg 64 A# noc_data_out [63:0] $end
$var reg 1 1 noc_ready_in $end
$var reg 1 . noc_valid_out $end
$var reg 64 B# sim_memory_rd_addr [63:0] $end
$var reg 64 C# sim_memory_wr_addr [63:0] $end
$var reg 512 D# sim_memory_wr_data [511:0] $end
$var reg 1 E# sim_memory_write $end
$var reg 64 F# write_mask [63:0] $end
$var integer 32 G# i [31:0] $end
$scope module decoder $end
$var wire 192 H# msg_header [191:0] $end
$var reg 40 I# msg_addr [39:0] $end
$var reg 1 J# msg_cache_type $end
$var reg 3 K# msg_data_size [2:0] $end
$var reg 1 L# msg_l2_miss $end
$var reg 1 M# msg_last_subline $end
$var reg 8 N# msg_length [7:0] $end
$var reg 6 O# msg_lsid [5:0] $end
$var reg 2 P# msg_mesi [1:0] $end
$var reg 8 Q# msg_mshrid [7:0] $end
$var reg 10 R# msg_sdid [9:0] $end
$var reg 14 S# msg_src_chipid [13:0] $end
$var reg 4 T# msg_src_fbits [3:0] $end
$var reg 8 U# msg_src_x [7:0] $end
$var reg 8 V# msg_src_y [7:0] $end
$var reg 2 W# msg_subline_id [1:0] $end
$var reg 4 X# msg_subline_vector [3:0] $end
$var reg 8 Y# msg_type [7:0] $end
$upscope $end
$scope module encoder $end
$var wire 40 Z# msg_addr [39:0] $end
$var wire 1 [# msg_cache_type $end
$var wire 3 \# msg_data_size [2:0] $end
$var wire 14 ]# msg_dst_chipid [13:0] $end
$var wire 4 ^# msg_dst_fbits [3:0] $end
$var wire 8 _# msg_dst_x [7:0] $end
$var wire 8 `# msg_dst_y [7:0] $end
$var wire 1 a# msg_l2_miss $end
$var wire 1 b# msg_last_subline $end
$var wire 8 c# msg_length [7:0] $end
$var wire 6 d# msg_lsid [5:0] $end
$var wire 2 e# msg_mesi [1:0] $end
$var wire 8 f# msg_mshrid [7:0] $end
$var wire 10 g# msg_sdid [9:0] $end
$var wire 14 h# msg_src_chipid [13:0] $end
$var wire 4 i# msg_src_fbits [3:0] $end
$var wire 8 j# msg_src_x [7:0] $end
$var wire 8 k# msg_src_y [7:0] $end
$var wire 2 l# msg_subline_id [1:0] $end
$var wire 4 m# msg_subline_vector [3:0] $end
$var wire 8 n# msg_type [7:0] $end
$var reg 192 o# msg_header [191:0] $end
$upscope $end
$upscope $end
$upscope $end
$enddefinitions $end
#0
$dumpvars
b0xxxxxxxxxxxxxxxxxxxxxxxxxxxxxxxxxxxxxxxx0000000000000000xxxxxxxxxxxxxxxxxxxxxxxxxxxxxxxxxx00000000xxxxxxxxxxxxxxxx00x001 o#
bx n#
b0 m#
b0 l#
b0 k#
b0 j#
b0 i#
b0 h#
b0 g#
bx f#
b0 e#
b0 d#
b0 c#
1b#
xa#
bx `#
bx _#
bx ^#
bx ]#
b0 \#
0[#
bx Z#
bx Y#
bx X#
bx W#
bx V#
bx U#
bx T#
bx S#
bx R#
bx Q#
bx P#
bx O#
bx N#
xM#
xL#
bx K#
xJ#
bx I#
bx H#
b10000000 G#
bx F#
0E#
b0 D#
b0 C#
b0 B#
bx A#
bx @#
b0 ?#
x>#
b0 =#
x<#
bx ;#
bx :#
bx 9#
bx 8#
bx 7#
bx 6#
bx 5#
bx 4#
bx 3#
bx 2#
bx 1#
bx 0#
bx /#
b0xxxxxxxxxxxxxxxxxxxxxxxxxxxxxxxxxxxxxxxx0000000000000000xxxxxxxxxxxxxxxxxxxxxxxxxxxxxxxxxx00000000xxxxxxxxxxxxxxxx00x001 .#
bx -#
bx ,#
bx +#
bx *#
bx )#
0(#
b0 '#
b0 &#
bx %#
b0 $#
bx ##
b0 "#
bx !#
bx ~"
bz }"
b0 |"
bx {"
b0 z"
bx y"
b0 x"
bx w"
bx v"
bz u"
b0 t"
bx s"
b0 r"
bx q"
b0 p"
bx o"
bx n"
b0 m"
bx l"
bx k"
bx j"
xi"
bx h"
bx g"
bx f"
bx e"
bx d"
xc"
xb"
bx a"
bx `"
bx _"
b0 ^"
bx ]"
b0 \"
bx ["
b0 Z"
bx Y"
bx X"
bz W"
b0 V"
bx U"
b0 T"
bx S"
b0 R"
bx Q"
bx P"
bx O"
xN"
bx M"
bx L"
bx K"
xJ"
bx I"
bx H"
bx G"
bx F"
xE"
bx D"
bx C"
bx B"
xA"
x@"
bx ?"
bx >"
x="
1<"
x;"
b0 :"
bx 9"
b0 8"
bx 7"
b0 6"
bx 5"
b0 4"
bx 3"
bx 2"
bz 1"
b10000000000000000000000000000110 0"
b10000000000000000000000000000100 /"
b10000000000000000000000000000101 ."
b10000000000000000000000000000011 -"
x,"
x+"
bx *"
bx )"
b0 ("
b0 '"
b0 &"
b0 %"
bx $"
bx #"
bx ""
bx !"
0~
b0 }
x|
x{
bx z
xy
xx
bx w
b0 v
xu
bx t
bx s
bx r
bx q
xp
xo
bx n
b0 m
xl
xk
bx j
xi
xh
bx g
xf
xe
xd
xc
0b
bz a
x`
x_
0^
bz ]
x\
0[
xZ
b0 Y
b0 X
b0 W
b0 V
xU
xT
zS
0R
bz Q
0P
zO
b0 N
b0 M
bz L
bz K
b0 J
bz I
bz H
b0 G
b0 F
b0 E
b0 D
0C
0B
0A
bz @
x?
0>
bz =
x<
b10 ;
1:
x9
x8
bx 7
x6
bx 5
x4
x3
b0 2
x1
00
bx /
x.
1-
x,
1+
0*
bz )
bz (
b0 '
1&
1%
0$
bz #
0"
bz !
$end
#5000
0+
#10000
0c
18
13
0u
0U
0T
0<
1_
0`
0\
0?
19
0Z
0;"
04
0="
b0 /
b0 r
b0 ?"
b0 A#
b0 :#
1<#
0.
b0 8#
b0 6#
0>#
11
b0 3#
0+"
0,"
0f
b11111111 a"
b11111111 g"
0{
1|
0h
1i
0d
0c"
0k
1l
0x
1y
0o
1p
06
b0 7
b0 t
b0 B"
0E"
b0 D"
b1 H"
1,
0@"
1A"
b0 9#
b0 7#
b0 5#
b0 2#
b0 !"
0e
b0 *"
b0 ]"
b0 ["
b0 Y"
b0 %#
b0 ##
b0 !#
b11111111 q
b11111111 e"
0b"
0i"
b0 {"
b0 y"
b0 w"
b0 7"
b0 5"
b0 3"
b0 s"
b0 q"
b0 o"
b0 C"
b1 G"
b0 U"
b0 S"
b0 Q"
1+
#15000
0+
#20000
b0xxxxxxxxxxxxxxxxxxxxxxxxxxxxxxxxxxxxxxxx0000000000000000xxxxxxxxxxxxxxxxxxxxxxxxxxxxxxxxxx00000000xxxxxxxx0000000000x001 .#
b0xxxxxxxxxxxxxxxxxxxxxxxxxxxxxxxxxxxxxxxx0000000000000000xxxxxxxxxxxxxxxxxxxxxxxxxxxxxxxxxx00000000xxxxxxxx0000000000x001 o#
0M#
b0 W#
0L#
b0 P#
b0 /#
b0 Q#
b0 f#
b0 N#
b0 )#
b0 Y#
bx0000000000000000000000000000000000000000000000000000000000000000 ;#
bx0000000000000000000000000000000000000000000000000000000000000000 H#
b0 4#
1+
#25000
0+
#30000
1+
#35000
0+
#40000
1+
#45000
0+
#50000
1+
#55000
0+
#60000
1+
#65000
0+
#70000
1+
#75000
0+
#80000
1+
#85000
0+
#90000
1+
#95000
0+
#100000
b1 t"
b1 p"
1[
b1 8"
b1 4"
b10 v
b10 m
b10 m"
b1 |"
b1 x"
b1 &#
b1 "#
1A
1C
1^
1b
b0 @
b0 1"
b0 #
b0 I
1$
1*
b10101011 ]
b10101011 u"
b10101011 (
b10101011 K
b11111111 a
b11111111 }"
b11111111 )
b11111111 L
1(#
0:
0-
1+
#105000
0+
#110000
0[
b0 v
b0 m
b0 m"
0^
0b
0C
0A
0*
0$
1c
1u
b0 ""
b100 #"
b11 $"
b1111 )"
b11111111 g
b11111111 _"
b11111111 ~"
b1 &#
b1 "#
0i
b111111111111110 d"
b1111 l"
b1 `"
b1111 k"
b1111 j"
b11111111 f"
b10101011 j
b10101011 v"
b1 |"
b1 x"
0l
b0 w
b0 2"
b1 8"
b1 4"
0y
b10 n
b10 n"
b1 t"
b1 p"
0p
b1 %#
b1 !#
b11111111 h"
b1 {"
b1 w"
b1 7"
b1 3"
b1 s"
b1 o"
b0 M"
b0 O"
0N"
1+
#115000
0+
#120000
b1 6#
b1 3#
b110000111100000000000000 4#
1c"
10
1~
b110000111100000000000000 2
b110000111100000000000000 N
b110000111100000000000000 '#
b110000111100000000000000 }
1i"
b1 *"
b1 !"
1+
#125000
0+
#130000
b11 N#
b1111 )#
b1111 Y#
bx0000000000000000000000000000000000000000110000111100000000000000 ;#
bx0000000000000000000000000000000000000000110000111100000000000000 H#
b10000000000 4#
b10 6#
b10 3#
b10000000000 2
b10000000000 N
b10000000000 '#
b10000000000 }
1f
0c"
1d
b1 5#
b1 2#
1e
b10 *"
1b"
1+
#135000
0+
#140000
b0xxxxxxxxxxxxxxxxxxxxxxxxxxxxxxxxxx00000000xxxxxxxx00000000000001 .#
b0xxxxxxxxxxxxxxxxxxxxxxxxxxxxxxxxxx00000000xxxxxxxx00000000000001 o#
0a#
b1111111111111111111111111111111111111111111111111111111111111111 F#
b0 4#
b0 1#
b0 I#
b0 Z#
b0 X#
0J#
b100 0#
b100 K#
0d
b0 2
b0 N
b0 '#
b0 }
1,"
0f
1c"
b11 3#
b11 6#
bx00000000000000000000000000000000000000000000000000000100000000000000000000000000000000000000000000000000110000111100000000000000 ;#
bx00000000000000000000000000000000000000000000000000000100000000000000000000000000000000000000000000000000110000111100000000000000 H#
0b"
0e
b11 *"
b10 2#
b10 5#
1+
#145000
0+
#150000
b1 r"
b0 p"
b1 $#
b0 "#
b1 z"
b0 x"
b1 6"
b0 4"
1Z
b0xxxxxxxx00000000000001 .#
b0xxxxxxxx00000000000001 o#
1`
1\
1?
b0 O#
b0 R#
b0 ,#
b0 T#
b0 ^#
b0 *#
b0 V#
b0 `#
b0 +#
b0 U#
b0 _#
b0 -#
b0 S#
b0 ]#
1U
b100000000000000000000000000000000000000000000000000110000111100000000000000 ;#
b100000000000000000000000000000000000000000000000000110000111100000000000000 H#
b10101011 4#
b100 6#
b100 3#
b10101011 2
b10101011 N
b10101011 '#
b10101011 }
1+"
0,"
1d
b11 5#
b11 2#
b10 !"
b0 *"
1b"
1+
#155000
0+
#160000
0Z
0u
0c
0?
b0 $"
0\
0`
0U
b1101100000000000001 .#
b1101100000000000001 o#
bx 4#
b1 8#
1p
bx n
bx n"
b1 r"
1y
bx w
bx 2"
b1 6"
1l
bx j
bx v"
b1 z"
1i
bx g
bx _"
bx ~"
b1 $#
00
0~
b0 2
b0 N
b0 '#
b0 }
0+"
b0 3#
b0 6#
b10101011 D#
1E#
b11011 @#
b11011 n#
01
1>#
b0 o"
b1 q"
b0 3"
b1 5"
b0 w"
b1 y"
b0 !#
b1 ##
b0 !"
b100 2#
b100 5#
1+
#165000
0+
#170000
b0 F"
16
1;"
b0 8#
b1 :#
b1101100000000000001 /
b1101100000000000001 r
b1101100000000000001 ?"
b1101100000000000001 A#
0<#
1.
b0 D#
0E#
b110000111100000000000000 4#
0>#
11
b1 7#
b0 5#
b0 2#
0i"
1+
#175000
0+
#180000
0;"
06
1<#
0.
b0 8#
bx /
bx r
bx ?"
bx A#
b1 :#
b1101100000000000001 M"
b1101100000000000001 O"
b0 7#
b1 9#
1+
#185000
0+
#190000
bx M"
bx O"
1+
#195000
0+
#200000
1+
#205000
0+
#210000
1+
#215000
0+
#220000
1+
#225000
0+
#230000
1+
#235000
0+
#240000
1+
#245000
0+
#250000
1+
#255000
0+
#260000
1+
#265000
0+
#270000
1+
#275000
0+
#280000
b10 t"
b1 p"
1[
b1 v
b1 m
b1 m"
b1 ^"
b1 Z"
1>
b0 =
b0 W"
b0 !
b0 H
1B
1"
1+
#285000
0+
#290000
0[
b0 v
b0 m
b0 m"
0>
0B
0"
1u
b10 $"
b1110 )"
b0 z
b0 X"
b1 ^"
b1 Z"
0|
b1 n
b1 n"
b10 t"
b1 p"
0p
b1 ]"
b1 Y"
b10 s"
b1 o"
1+
#295000
0+
#300000
b1 6#
b1 3#
b100000111000000000000000 4#
10
1~
b100000111000000000000000 2
b100000111000000000000000 N
b100000111000000000000000 '#
b100000111000000000000000 }
b1 *"
b1 !"
1+
#305000
0+
#310000
b10 N#
b1110 )#
b1110 Y#
b100000000000000000000000000000000000000000000000000100000111000000000000000 ;#
b100000000000000000000000000000000000000000000000000100000111000000000000000 H#
b10000000000 4#
b10 6#
b10 3#
b10000000000 2
b10000000000 N
b10000000000 '#
b10000000000 }
1f
0c"
bx g"
b1 5#
b1 2#
1e
b10 *"
1+
#315000
0+
#320000
b10 r"
b0 p"
b1 \"
b0 Z"
1Z
1<
b0 4#
1T
0d
bx d"
b1111 l"
bx `"
b1111 k"
b1111 j"
bx f"
b0 2
b0 N
b0 '#
b0 }
1,"
0f
b11111111 g"
b11 3#
b11 6#
0b"
bx h"
0e
b11 *"
b10 2#
b10 5#
1+
#325000
0+
#330000
b10001101000000000000001 .#
b10001101000000000000001 o#
b0 :#
b10 8#
b1 ?#
b1 c#
b11010 @#
b11010 n#
b0 3#
0<
0T
0u
0c
b0 $"
0Z
b10101011 4#
b0 6#
01
1>#
00
0~
0,"
bx z
bx X"
1|
b111111111111110 d"
b1111 l"
b1 `"
b1111 k"
b1111 j"
b11111111 f"
bx n
bx n"
1p
b11 5#
b11 2#
b0 !"
b0 *"
b1 ["
b0 Y"
b11111111 h"
b10 q"
b0 o"
1+
#335000
0+
#340000
b1101000000000000001 .#
b1101000000000000001 o#
b1 F"
b100 H"
b0 ?#
b0 c#
1;"
b1 :#
b1 8#
0>#
11
b100000111000000000000000 4#
0<#
1.
b10001101000000000000001 /
b10001101000000000000001 r
b10001101000000000000001 ?"
b10001101000000000000001 A#
b0 2#
b0 5#
b10 7#
b0 9#
1+
#345000
0+
#350000
b10101011 /
b10101011 r
b10101011 ?"
b10101011 A#
b10 :#
b0 8#
b1 D"
b1 9#
b1 7#
b100 G"
b10001101000000000000001 M"
b10001101000000000000001 O"
1+
#355000
0+
#360000
0;"
b1 V"
b1 R"
b0 D"
b0 F"
b1 H"
1E"
1<#
0.
b0 8#
bx /
bx r
bx ?"
bx A#
b10 :#
b10101011 M"
b10101011 O"
1N"
b1 C"
b0 7#
b10 9#
1+
#365000
0+
#370000
b1 T"
b0 R"
14
1="
0E"
b10101011 5
b10101011 s
b10101011 9"
b10101011 >"
b10101011 P"
0A"
b0 C"
b1 G"
b1 U"
b1 Q"
bx M"
bx O"
0N"
1+
#375000
0+
#380000
04
0="
1A"
bx 5
bx s
bx 9"
bx >"
bx P"
b1 T"
b0 Q"
b1 S"
1+
